ETC3250/5250 Tutorial 1 Solution
…
mean_pred <- predict(lm_fit, new_data = new_points)
mean_pred
# # A tibble: 27 x 1
#    .pred
#    <dbl>
#  1  12.0
#  2  28.9
#  3  45.7
#  4  14.6
#  5  31.4
#  6  48.3
#  7  17.2
#  8  34.0
#  9  50.8
# 10  10.9
# #  with 17 more rows

conf_int_pred <- predict(lm_fit, 
                         new_data = new_points, 
                         type = "conf_int")
conf_int_pred
# # A tibble: 27 x 2
#    .pred_lower .pred_upper
#          <dbl>       <dbl>
#  1        7.73        16.4
#  2       24.4         33.3
#  3       37.5         54.0
#  4        9.06        20.2
#  5       26.4         36.5
#  6       40.0         56.5
#  7        7.47        26.9
#  8       24.9         43.1
#  9       39.9         61.7
# 10        6.64        15.2
# #  with 17 more rows
…
